Number of cores: 2
Number of workers: 1
Number of files: 1
Total pairs processed: 10000
Total time: 51.06625685799918

Number of cores: 2
Number of workers: 1
Number of files: 3
Total pairs processed: 90000
Total time: 337.2191652870006

Number of cores: 2
Number of workers: 1
Number of files: 5
Total pairs processed: 250000
Total time: 907.2888648000007

